<?xml version="1.0" encoding="UTF-8"?>
<svg width="19px" height="14px" viewBox="0 0 19 14" version="1.1" xmlns="http://www.w3.org/2000/svg" xmlns:xlink="http://www.w3.org/1999/xlink">
    <!-- Generator: Sketch 54.1 (76490) - https://sketchapp.com -->
    <title>Path</title>
    <desc>Created with Sketch.</desc>
    <g id="homepage-2" stroke="none" stroke-width="1" fill="none" fill-rule="evenodd">
        <g id="assured-delivery" transform="translate(-300.000000, -5985.000000)" fill="#1A1A1A" fill-rule="nonzero">
            <g id="Group-2" transform="translate(310.000000, 5992.000000) rotate(-270.000000) translate(-310.000000, -5992.000000) translate(286.000000, 5968.000000)">
                <path d="M17.2105501,21.2056208 L23.5036582,15.2009209 C23.7742751,14.9330264 24.2257249,14.9330264 24.4969741,15.2009209 L30.7894499,21.2056208 C31.0701834,21.4638615 31.0701834,21.8952683 30.7894499,22.1631629 C30.518833,22.422007 30.066751,22.422007 29.7860175,22.1631629 L24.7075242,17.3078755 L24.7075242,33.3296602 C24.7075242,33.7031439 24.3863246,34 23.9949417,34 C23.6035588,34 23.2924758,33.7031439 23.2918436,33.3296602 L23.2918436,17.3078755 L18.203866,22.1631629 C17.933249,22.422007 17.4817993,22.422007 17.2105501,22.1631629 C16.9298166,21.8952683 16.9298166,21.4644649 17.2105501,21.2056208 Z" id="Path"></path>
            </g>
        </g>
    </g>
</svg>