<?xml version="1.0" encoding="UTF-8"?>
<svg width="830px" height="798px" viewBox="0 0 830 798" version="1.1" xmlns="http://www.w3.org/2000/svg" xmlns:xlink="http://www.w3.org/1999/xlink">
    <!-- Generator: Sketch 54.1 (76490) - https://sketchapp.com -->
    <title>Path</title>
    <desc>Created with Sketch.</desc>
    <g id="homepage-2" stroke="none" stroke-width="1" fill="none" fill-rule="evenodd" fill-opacity="0.4">
        <path d="M413.8965,782.125798 C179.321393,782.125798 -11.2708816,612.214293 -11.2708816,394.727568 C-11.2708816,187.435532 175.656157,14.1257976 413.8965,14.1257976 C652.136844,14.1257976 842.729118,184.037302 842.729118,394.727568 C842.729118,605.417833 655.80208,782.125798 413.8965,782.125798 L413.8965,782.125798 Z" id="Path" fill="#EBDED4" transform="translate(415.729118, 398.125798) rotate(-146.000000) translate(-415.729118, -398.125798) "></path>
    </g>
</svg>