<?xml version="1.0" encoding="UTF-8"?>
<svg width="371px" height="445px" viewBox="0 0 371 445" version="1.1" xmlns="http://www.w3.org/2000/svg" xmlns:xlink="http://www.w3.org/1999/xlink">
    <!-- Generator: Sketch 54.1 (76490) - https://sketchapp.com -->
    <title>Group 12</title>
    <desc>Created with Sketch.</desc>
    <defs>
        <polygon id="path-1" points="1.58480922 0.2655 20.5625 0.2655 20.5625 22.6837064 1.58480922 22.6837064"></polygon>
        <polygon id="path-3" points="0.650942254 0.78393054 21.5625 0.78393054 21.5625 22.2839305 0.650942254 22.2839305"></polygon>
        <polygon id="path-5" points="1.5 0.1456 20.4686664 0.1456 20.4686664 22.5669519 1.5 22.5669519"></polygon>
        <polygon id="path-7" points="0.5 0.654248476 21.408698 0.654248476 21.408698 22.1542485 0.5 22.1542485"></polygon>
        <polygon id="path-9" points="0.413699867 0.6725 65.8152 0.6725 65.8152 60.5113 0.413699867 60.5113"></polygon>
        <ellipse id="path-11" cx="283.370491" cy="488.870491" rx="113.5" ry="20"></ellipse>
        <filter x="-31.7%" y="-180.0%" width="163.4%" height="460.0%" filterUnits="objectBoundingBox" id="filter-12">
            <feOffset dx="0" dy="0" in="SourceAlpha" result="shadowOffsetOuter1"></feOffset>
            <feGaussianBlur stdDeviation="24" in="shadowOffsetOuter1" result="shadowBlurOuter1"></feGaussianBlur>
            <feColorMatrix values="0 0 0 0 0   0 0 0 0 0   0 0 0 0 0  0 0 0 0.5 0" type="matrix" in="shadowBlurOuter1"></feColorMatrix>
        </filter>
    </defs>
    <g id="homepage-2" stroke="none" stroke-width="1" fill="none" fill-rule="evenodd">
        <g id="homepage" transform="translate(-957.000000, -1919.000000)">
            <g id="Group-12" transform="translate(868.129509, 1808.129509)">
                <g id="Group-70" transform="translate(262.500000, 262.500000) rotate(-225.000000) translate(-262.500000, -262.500000) translate(95.000000, 60.000000)">
                    <polygon id="Fill-3" fill="#231F20" points="65.466 280.381 78.534 280.733 78.534 272.483 78.534 269.029 65.466 265.267"></polygon>
                    <path d="M68.091,273 C68.091,277.158 66.705,280.568 64.989,280.568 C63.295,280.568 61.909,277.158 61.909,273 C61.909,268.842 63.295,265.432 64.989,265.432 C66.705,265.432 68.091,268.842 68.091,273" id="Fill-5" fill="#231F20"></path>
                    <path d="M65,279.468 C64.428,279.468 62.998,277.18 62.998,273 C62.998,268.82 64.428,266.532 65,266.532 C65.572,266.532 67.002,268.82 67.002,273 C67.002,277.18 65.572,279.468 65,279.468" id="Fill-7" fill="#FAAF3F"></path>
                    <polygon id="Fill-9" fill="#231F20" points="134.466 381.381 147.534 381.733 147.534 373.483 147.534 370.029 134.466 366.267"></polygon>
                    <path d="M137.091,374 C137.091,378.158 135.705,381.568 133.989,381.568 C132.295,381.568 130.909,378.158 130.909,374 C130.909,369.842 132.295,366.432 133.989,366.432 C135.705,366.432 137.091,369.842 137.091,374" id="Fill-11" fill="#231F20"></path>
                    <path d="M134,380.468 C133.428,380.468 131.998,378.18 131.998,374 C131.998,369.82 133.428,367.532 134,367.532 C134.572,367.532 136.002,369.82 136.002,374 C136.002,378.18 134.572,380.468 134,380.468" id="Fill-13" fill="#FAAF3F"></path>
                    <path d="M57.986907,232.390817 C62.0199924,226.994697 73.493797,228.35452 94.3709452,221.598578 C115.269661,214.864221 124.047553,222.9584 124.716139,226.325579 C125.384725,229.692757 124.716139,226.325579 127.412052,233.729055 C130.107964,241.154115 204.903367,326.822908 219.073084,345.040208 C233.221234,363.257507 228.497995,383.482163 219.073084,395.634224 C209.626606,407.764701 180.640153,407.764701 163.79609,397.641581 C146.952027,387.540045 58.6554933,259.371414 56.6497343,251.946354 C54.6224079,244.542878 57.986907,232.390817 57.986907,232.390817" id="Fill-15" fill="#EE4136"></path>
                    <path d="M58.986907,229.390817 C63.0199924,223.994697 74.493797,225.35452 95.3709452,218.598578 C116.269661,211.864221 125.047553,219.9584 125.716139,223.325579 C126.384725,226.692757 125.716139,223.325579 128.412052,230.729055 C131.107964,238.154115 205.903367,323.822908 220.073084,342.040208 C234.221234,360.257507 229.497995,380.482163 220.073084,392.634224 C210.626606,404.764701 181.640153,404.764701 164.79609,394.641581 C147.952027,384.540045 59.6554933,256.371414 57.6497343,248.946354 C55.6224079,241.542878 58.986907,229.390817 58.986907,229.390817" id="Fill-17" fill="#BBBDBF"></path>
                    <path d="M66.4679963,263.138849 C66.4679963,263.138849 69.166519,267.18611 87.1494739,278.007663 C105.154017,288.829216 123.590324,299.217907 132.139243,312.744848 C140.688163,326.271789 174.408902,385.768687 182.957822,387.586708 C191.506742,389.404729 213.094923,385.335825 216.678561,373.1724 L220.283787,360.987331 C220.283787,360.987331 224.990011,351.529294 218.815791,344.755001 C212.641571,338.002352 178.46748,306.879566 170.803676,299.217907 C163.16146,291.534604 162.254756,290.647237 160.462937,288.396354 C158.671118,286.123828 121.345153,244.201132 119.985097,242.859259 C118.64663,241.495743 109.191007,239.699366 101.095439,242.404754 C92.999871,245.110142 65,264.95687 65,264.95687" id="Fill-19" fill="#808184"></path>
                    <path d="M219.635499,332.449193 C219.549399,332.233976 219.484825,331.954193 219.3772,331.738976 C217.547582,327.951157 210.293684,255.014113 210.293684,255.014113 C210.293684,255.014113 223.40236,199.208343 226.437373,179.709682 C229.450862,160.340151 219.3772,152.463208 219.3772,152.463208 L156.93341,123 L100.0861,177.062513 L100.0861,234.805236 L100,234.891323 C104.003635,237.366318 109.621639,238.872837 117.133835,235.859799 C118.145507,235.472409 118.877354,235.063496 119.759875,234.633062 C119.738351,234.460889 119.673776,233.879803 119.673776,233.879803 C119.673776,233.879803 128.994066,196.625739 128.994066,192.902484 C128.994066,189.17923 170.924608,179.881855 170.924608,179.881855 C170.924608,179.881855 167.200797,215.263532 166.275225,234.805236 C165.349654,254.389984 188.661141,295.367302 196.087238,314.005095 C201.296268,326.982681 205.450577,331.825063 205.084654,337.334619 C209.927761,338.798094 215.136791,338.130922 219.635499,332.449193" id="Fill-21" fill="#08233C"></path>
                    <path d="M218.936219,99.9022451 C217.902219,114.084928 211.038219,119.165615 209.652219,120.851971 C208.288219,122.538326 212.754219,123.554464 216.186219,135.704872 C219.618219,147.876901 214.118219,159.011172 214.118219,159.011172 L214.118219,159.984069 C217.990219,160.070549 221.114219,159.81111 222.852219,159.054412 C228.880219,156.524878 228.660219,108.809662 228.572219,99.8157653 C224.392219,95.1458575 219.706219,89.4381923 218.936219,99.9022451" id="Fill-23" fill="#D0D2D3"></path>
                    <path d="M275.934781,107.787403 C268.498144,96.6128306 245.196684,67.7182717 230.237189,58.3953626 C215.29925,49.0724535 186.371812,33.2041302 174.257639,30.4266353 C162.100355,27.6060785 133.172917,25.7544153 133.172917,25.7544153 C133.172917,25.7544153 113.557442,20.1778946 107.974576,21.1037262 C102.370154,22.0510888 102.370154,21.1037262 93.0581919,24.8285837 C83.7246743,28.5749721 49.1712594,54.6489742 42.6615081,59.3211942 C39.3204106,61.6896007 34.6428741,63.8211665 31,65.8235465 C35.2895381,68.816351 39.6437426,72.6919253 42.4243979,77.0842427 L42.4459534,76.890464 C46.9941571,73.7684737 90.2775365,54.6274432 93.0581919,51.8499484 C95.8388472,49.0724535 113.557442,49.0724535 122.890959,58.3953626 C132.246032,67.7182717 133.172917,86.3425589 142.48488,95.665468 C151.839953,105.031439 152.766838,117.131843 153.736834,125.507389 C154.663719,133.882936 165.829451,146.930702 177.986735,152.550285 C186.95381,156.684231 203.529964,159.78469 214.221477,160 L214.221477,159.031106 C214.221477,159.031106 219.610343,147.921127 216.226135,135.820723 C212.863482,123.698788 208.487722,122.686833 209.845717,121.007417 C211.182156,119.328002 217.929017,114.289755 218.920568,100.16544 C219.67501,89.7444518 224.266325,95.4070964 228.383419,100.057785 C228.361863,99.1319538 228.361863,98.4644938 228.361863,98.4644938 C228.361863,98.4644938 263.820608,119.909338 268.498144,129.253778 C272.291907,136.85421 286.518516,152.959374 291.670272,158.686611 C294.989814,157.071788 299.214686,155.736868 304,154.724913 C294.386261,138.404439 281.237426,115.689268 275.934781,107.787403" id="Fill-25" fill="#E5E6E7"></path>
                    <path d="M164.169749,78 C164.169749,78 152.238976,93.167206 143.732575,96.5329018 C135.204362,99.9201726 126,121.81877 126,121.81877 L131.801802,138 C131.801802,138 142.358464,126.888889 142.358464,125.874865 C142.358464,124.860841 146.786155,106.306365 153.940256,101.60302 C161.094358,96.8781014 172,78.6688242 172,78.6688242 L164.169749,78 Z" id="Fill-27" fill="#A41E24"></path>
                    <path d="M165.078038,71.1857595 C165.078038,71.1857595 162.680038,74.2877595 163.362038,76.0037595 C164.044038,77.7197595 165.078038,80.4697595 168.510038,80.7997595 C171.942038,81.1517595 176.760038,74.9697595 176.760038,74.9697595 L174.362038,71.1857595 L165.078038,71.1857595 Z" id="Fill-29" fill="#BE1E2D"></path>
                    <path d="M176.330667,83 L172,72.1633065 L198.005333,40 L204,43.7278226 C204,43.7278226 201.994667,57.9455645 192.672,67.0917339 L183.328,76.2379032 L176.330667,83 Z" id="Fill-31" fill="#D0D2D3"></path>
                    <g id="Group-35" transform="translate(313.000000, 166.000000)">
                        <mask id="mask-2" fill="white">
                            <use xlink:href="#path-1"></use>
                        </mask>
                        <g id="Clip-34"></g>
                        <path d="M13.53845,20.3035 C13.53845,20.3035 22.26745,26.13 19.45095,19.551 C16.65595,12.9935 10.50695,3.77 10.50695,3.77 L4.65895,0.2655 L13.53845,20.3035 Z" id="Fill-33" fill="#E1AC88" mask="url(#mask-2)"></path>
                    </g>
                    <g id="Group-38" transform="translate(312.000000, 161.000000)">
                        <mask id="mask-4" fill="white">
                            <use xlink:href="#path-3"></use>
                        </mask>
                        <g id="Clip-37"></g>
                        <path d="M17.6452,21.06155 C17.6452,21.06155 23.1492,23.12555 21.1067,19.42755 C19.0212,15.72955 5.8632,1.79755 5.8632,1.79755 L1.2407,1.43205 L17.6452,21.06155 Z" id="Fill-36" fill="#E1AC88" mask="url(#mask-4)"></path>
                    </g>
                    <g id="Group-41" transform="translate(0.000000, 78.000000)">
                        <mask id="mask-6" fill="white">
                            <use xlink:href="#path-5"></use>
                        </mask>
                        <g id="Clip-40"></g>
                        <path d="M8.5219,20.1621 C8.5219,20.1621 -0.2071,26.0316 2.5879,19.4311 C5.3829,12.8736 11.5319,3.6716 11.5319,3.6716 L17.4014,0.1456 L8.5219,20.1621 Z" id="Fill-39" fill="#E1AC88" mask="url(#mask-6)"></path>
                    </g>
                    <g id="Group-44" transform="translate(1.000000, 73.000000)">
                        <mask id="mask-8" fill="white">
                            <use xlink:href="#path-7"></use>
                        </mask>
                        <g id="Clip-43"></g>
                        <path d="M4.39365,20.89865 C4.39365,20.89865 -1.08885,23.00565 0.95365,19.30765 C3.03915,15.60965 16.17565,1.65615 16.17565,1.65615 L20.81965,1.31215 L4.39365,20.89865 Z" id="Fill-42" fill="#E1AC88" mask="url(#mask-8)"></path>
                    </g>
                    <path d="M326.727503,181.788525 C326.727503,181.788525 324.383396,174.329508 324.101236,172.795082 C323.840779,171.260656 321.105988,166.252459 320.150982,164.483607 C319.26109,162.821311 314.377535,158.836066 311.425697,157.621311 C310.036597,157.067213 307.475443,156.619672 305.174746,156.321311 C304.935995,155.895082 304.653834,155.42623 304.393378,155 C299.596641,155.980328 295.342522,157.301639 292,158.921311 C292.36898,159.304918 292.803074,159.795082 293.06353,160.05082 L293.671261,170.791803 C293.671261,170.791803 300.833809,178.954098 304.154626,181.042623 C307.497148,183.152459 310.644328,187.990164 310.644328,187.990164 C310.644328,187.990164 314.811628,186.413115 312.055133,182.406557 C309.320342,178.336066 309.928073,173.05082 312.64116,174.840984 C315.267427,176.801639 328.33365,194 328.33365,194 C328.33365,194 332.935044,193.168852 331.828105,191.165574 C330.677756,188.991803 326.727503,181.788525 326.727503,181.788525" id="Fill-45" fill="#FACBA7"></path>
                    <path d="M30.6867325,66 C29.0857985,66.9027405 27.6556307,67.7624933 26.716416,68.6222461 C25.7558556,68.8156905 24.8379867,69.0521225 24.2189589,69.3100484 C21.3586233,70.5351961 16.5131295,74.5760344 15.6379522,76.2310586 C14.7200834,78.0150457 12.0091683,83.0445997 11.7743647,84.6136486 C11.5182152,86.1612037 9.19152438,93.6410532 9.19152438,93.6410532 C9.19152438,93.6410532 5.30659102,100.927458 4.17526428,103.162816 C3.06528332,105.204729 7.5905903,106 7.5905903,106 C7.5905903,106 20.4621003,88.5900054 23.0449406,86.6555615 C25.713164,84.807093 26.2895003,90.1590543 23.599931,94.2858678 C20.9103618,98.3267061 25.008753,99.9387426 25.008753,99.9387426 C25.008753,99.9387426 28.1038922,95.0166577 31.3911435,92.8887695 C34.657049,90.8253627 41.7225048,82.5932294 41.7225048,82.5932294 L42,77.2197743 C39.2250476,72.8565287 34.9345443,68.9876411 30.6867325,66" id="Fill-47" fill="#FACBA7"></path>
                    <path d="M99.6505832,234.260815 C99.1544408,234.652037 71.672464,256.799571 67.099325,257.690688 C62.3967576,258.668744 66.3227543,269.318687 71.7156069,268.992668 C87.1607366,268.10155 91.3455902,258.212318 100.642868,258.212318 C110.00486,258.212318 115.613427,257.690688 118.439282,252.039698 C120.984708,246.910338 119.711995,235.999581 119.453138,234 C118.56871,234.434692 117.813711,234.847648 116.799854,235.238871 C109.271432,238.303446 103.662866,236.760291 99.6505832,234.260815" id="Fill-49" fill="#231F20"></path>
                    <path d="M205.571684,336.939908 C205.398,339.398981 204.442737,341.945101 202.163131,345.405212 C194.629575,356.699539 179.171676,373.238437 182.449966,378.417723 C185.706546,383.618772 195.563128,389.733812 203.096684,383.096491 C210.608528,376.502693 214.34274,357.591769 219.075636,351.041495 C223.526296,344.795884 222.028269,336.091201 220.248005,332 C215.710503,337.745091 210.456554,338.419704 205.571684,336.939908" id="Fill-51" fill="#231F20"></path>
                    <path d="M167.855123,71.1985158 L158.571123,78 C158.571123,78 146.889123,67.1219852 146.207123,55.8733766 C145.503123,44.6247681 151.003123,31 151.003123,31 L167.855123,71.1985158 Z" id="Fill-53" fill="#D0D2D3"></path>
                    <path d="M148.391945,44.4332643 C146.436661,36.3623086 152.432866,35.200091 152.432866,35.200091 L156.430335,48.6301613 L158.38562,32.0362764 C158.38562,32.0362764 153.280155,29.8840215 172.376764,35.7166322 C186.215831,39.8920066 196.47021,31.7780058 201.054265,27 C201.662576,29.9916342 202.075358,33.1554489 201.988457,36.4053537 C201.423597,55.9047827 187.693157,71.4010177 171.333946,70.9920892 C163.208654,70.7983863 155.995828,66.7091021 150.803462,60.2738601 C153.214979,56.3352337 149.999623,50.8039387 148.391945,44.4332643" id="Fill-55" fill="#FACBA7"></path>
                    <g id="Group-59" transform="translate(142.000000, 0.000000)">
                        <mask id="mask-10" fill="white">
                            <use xlink:href="#path-9"></use>
                        </mask>
                        <g id="Clip-58"></g>
                        <path d="M30.7702,0.6768 C40.5527,0.9348 48.8302,7.0193 53.8397,15.9418 C56.0327,15.2968 59.8812,12.1793 60.8917,10.7603 L62.0527,9.1263 L59.1717,19.0378 L65.8152,17.5113 L63.1277,22.4778 C63.1277,22.4778 61.1497,24.6923 58.1182,27.2078 L58.1182,27.2723 C53.5817,32.0453 43.4337,40.1508 29.7382,35.9798 C10.8397,30.1533 15.8922,32.3033 15.8922,32.3033 L13.9572,48.8798 L9.9797,35.4638 C9.9797,35.4638 4.0672,36.6248 6.0022,44.6873 C7.5932,51.0513 10.7537,56.5768 8.3672,60.5113 C3.2502,53.9753 0.1327,45.0313 0.4337,35.2273 C1.0357,15.7483 14.6237,0.2898 30.7702,0.6768" id="Fill-57" fill="#A98B43" mask="url(#mask-10)"></path>
                    </g>
                    <polygon id="Fill-60" fill="#E1AC88" points="190.329 48.818 195.037 61.182 186.963 60.368"></polygon>
                    <path d="M169.375,91 C169.375,92.342 168.759,93.398 168.011,93.398 C167.241,93.398 166.625,92.342 166.625,91 C166.625,89.658 167.241,88.602 168.011,88.602 C168.759,88.602 169.375,89.658 169.375,91" id="Fill-62" fill="#58585B"></path>
                    <path d="M171.375,108 C171.375,109.342 170.759,110.398 170.011,110.398 C169.241,110.398 168.625,109.342 168.625,108 C168.625,106.658 169.241,105.602 170.011,105.602 C170.759,105.602 171.375,106.658 171.375,108" id="Fill-64" fill="#58585B"></path>
                    <path d="M171.375,125 C171.375,126.342 170.759,127.398 170.011,127.398 C169.241,127.398 168.625,126.342 168.625,125 C168.625,123.658 169.241,122.602 170.011,122.602 C170.759,122.602 171.375,123.658 171.375,125" id="Fill-66" fill="#58585B"></path>
                    <path d="M171.375,140 C171.375,141.342 170.759,142.398 170.011,142.398 C169.241,142.398 168.625,141.342 168.625,140 C168.625,138.658 169.241,137.602 170.011,137.602 C170.759,137.602 171.375,138.658 171.375,140" id="Fill-68" fill="#58585B"></path>
                </g>
                <g id="Oval" fill="black" fill-opacity="1">
                    <use filter="url(#filter-12)" xlink:href="#path-11"></use>
                </g>
            </g>
        </g>
    </g>
</svg>