<?xml version="1.0" encoding="UTF-8"?>
<svg width="23px" height="24px" viewBox="0 0 23 24" version="1.1" xmlns="http://www.w3.org/2000/svg" xmlns:xlink="http://www.w3.org/1999/xlink">
    <!-- Generator: Sketch 54.1 (76490) - https://sketchapp.com -->
    <title>Shape</title>
    <desc>Created with Sketch.</desc>
    <g id="homepage-2" stroke="none" stroke-width="1" fill="none" fill-rule="evenodd">
        <g id="cookie-consent" transform="translate(-1529.000000, -913.000000)" fill="#FF004E" fill-rule="nonzero">
            <path d="M1551.30973,929.316186 C1551.79462,928.688833 1552.02716,928.016311 1551.99748,927.323714 C1551.96779,926.560853 1551.63134,925.963614 1551.35426,925.59724 C1551.67587,924.784191 1551.79956,923.504391 1550.72589,922.510665 C1549.93918,921.782936 1548.60327,921.456713 1546.75279,921.547051 C1545.45151,921.607277 1544.36299,921.853199 1544.31846,921.863237 L1544.31351,921.863237 C1544.06612,921.908407 1543.80388,921.963614 1543.5367,922.023839 C1543.51691,921.702635 1543.57134,920.904642 1544.15518,919.107905 C1544.84787,916.969887 1544.80829,915.333752 1544.02654,914.239649 C1543.2052,913.090339 1541.89402,913 1541.50809,913 C1541.13701,913 1540.79561,913.155583 1540.55316,913.441656 C1540.00396,914.089084 1540.06828,915.283563 1540.13755,915.835634 C1539.48444,917.612296 1537.65374,921.968632 1536.10507,923.178168 C1536.07539,923.198243 1536.05065,923.223338 1536.02591,923.248432 C1535.57071,923.735257 1535.26394,924.262233 1535.05613,924.723965 C1534.76421,924.563363 1534.43271,924.473024 1534.07647,924.473024 L1531.05829,924.473024 C1529.92029,924.473024 1529,925.411543 1529,926.560853 L1529,934.716437 C1529,935.870765 1529.92524,936.804266 1531.05829,936.804266 L1534.07647,936.804266 C1534.51682,936.804266 1534.92749,936.663739 1535.26394,936.422836 L1536.42668,936.563363 C1536.6048,936.588457 1539.77141,936.994981 1543.02213,936.929737 C1543.61092,936.974906 1544.16508,937 1544.67965,937 C1545.56531,937 1546.33717,936.929737 1546.98039,936.78921 C1548.49442,936.462986 1549.52851,935.81054 1550.05298,934.851945 C1550.45376,934.119197 1550.45376,933.391468 1550.38944,932.929737 C1551.37405,932.026349 1551.54723,931.027604 1551.51259,930.324969 C1551.4928,929.918444 1551.40374,929.572146 1551.30973,929.316186 Z M1531.05829,935.449184 C1530.65752,935.449184 1530.33591,935.117942 1530.33591,934.716437 L1530.33591,926.555834 C1530.33591,926.14931 1530.66247,925.823087 1531.05829,925.823087 L1534.07647,925.823087 C1534.47724,925.823087 1534.79885,926.154329 1534.79885,926.555834 L1534.79885,934.711418 C1534.79885,935.117942 1534.47229,935.444166 1534.07647,935.444166 L1531.05829,935.444166 L1531.05829,935.449184 Z M1550.04309,928.728984 C1549.83528,928.949812 1549.7957,929.286073 1549.95403,929.547051 C1549.95403,929.55207 1550.15689,929.903388 1550.18163,930.385194 C1550.21626,931.04266 1549.90455,931.624843 1549.25144,932.121706 C1549.01889,932.302384 1548.92488,932.613551 1549.02384,932.894605 C1549.02384,932.899624 1549.23659,933.562108 1548.89025,934.18946 C1548.55874,934.791719 1547.82152,935.223338 1546.70331,935.464241 C1545.80775,935.659975 1544.59059,935.695107 1543.09635,935.574655 C1543.07655,935.574655 1543.05182,935.574655 1543.02708,935.574655 C1539.84563,935.644918 1536.62954,935.223338 1536.59491,935.218319 L1536.58996,935.218319 L1536.09023,935.158093 C1536.11992,935.017566 1536.13476,934.867001 1536.13476,934.716437 L1536.13476,926.555834 C1536.13476,926.340025 1536.10012,926.129235 1536.04075,925.933501 C1536.12981,925.59724 1536.3772,924.849435 1536.96105,924.212045 C1539.18262,922.425345 1541.35471,916.397742 1541.44872,916.136763 C1541.4883,916.031368 1541.4982,915.915935 1541.47841,915.800502 C1541.39429,915.238394 1541.42398,914.550816 1541.54273,914.345044 C1541.80496,914.350063 1542.5125,914.425345 1542.93802,915.022585 C1543.44269,915.730238 1543.4229,916.994981 1542.87864,918.671267 C1542.04741,921.225847 1541.97814,922.570891 1542.6362,923.163112 C1542.96275,923.459222 1543.39816,923.474279 1543.71482,923.358846 C1544.01664,923.288582 1544.30361,923.228356 1544.57574,923.183187 C1544.59554,923.178168 1544.62027,923.173149 1544.64007,923.16813 C1546.15905,922.83187 1548.88035,922.626098 1549.82538,923.499373 C1550.62693,924.242158 1550.05793,925.225847 1549.99361,925.331242 C1549.81054,925.612296 1549.86497,925.97867 1550.11236,926.204517 C1550.11731,926.209536 1550.63683,926.706399 1550.66157,927.373902 C1550.68136,927.820577 1550.47355,928.27729 1550.04309,928.728984 Z" id="Shape"></path>
        </g>
    </g>
</svg>