<?xml version="1.0" encoding="UTF-8"?>
<svg width="20px" height="16px" viewBox="0 0 20 16" version="1.1" xmlns="http://www.w3.org/2000/svg" xmlns:xlink="http://www.w3.org/1999/xlink">
    <!-- Generator: Sketch 54.1 (76490) - https://sketchapp.com -->
    <title>icon-twitter</title>
    <desc>Created with Sketch.</desc>
    <g id="homepage-2" stroke="none" stroke-width="1" fill="none" fill-rule="evenodd">
        <g id="blog-detail" transform="translate(-1089.000000, -199.000000)" fill="#FFFFFF" fill-rule="nonzero">
            <path d="M1109,200.893052 C1108.26389,201.214295 1107.47405,201.432158 1106.64418,201.529423 C1107.49153,201.029679 1108.14016,200.237016 1108.44758,199.295398 C1107.65274,199.758193 1106.77539,200.094241 1105.84055,200.276411 C1105.09195,199.489895 1104.02715,199 1102.8461,199 C1100.58028,199 1098.74312,200.80937 1098.74312,203.039693 C1098.74312,203.356011 1098.77936,203.664959 1098.84936,203.96039 C1095.44001,203.791738 1092.41684,202.183013 1090.39347,199.738495 C1090.03977,200.334248 1089.83856,201.028424 1089.83856,201.769429 C1089.83856,203.171396 1090.56343,204.408411 1091.66324,205.132133 C1090.99085,205.10999 1090.35847,204.92782 1089.80484,204.625019 L1089.80484,204.675486 C1089.80484,206.632555 1091.21958,208.265902 1093.09546,208.637644 C1092.75177,208.728729 1092.38935,208.779196 1092.01442,208.779196 C1091.74948,208.779196 1091.49327,208.753351 1091.24206,208.704107 C1091.76445,210.310386 1093.27919,211.478461 1095.07387,211.510485 C1093.67037,212.593655 1091.90069,213.237396 1089.97856,213.237396 C1089.64739,213.237396 1089.32118,213.217698 1089,213.182005 C1090.81592,214.330414 1092.97177,215 1095.28883,215 C1102.83617,215 1106.96166,208.843213 1106.96166,203.503743 L1106.94791,202.980632 C1107.75398,202.414394 1108.45134,201.702966 1109,200.893052 Z" id="icon-twitter"></path>
        </g>
    </g>
</svg>