<?xml version="1.0" encoding="UTF-8"?>
<svg width="60px" height="120px" viewBox="0 0 60 120" version="1.1" xmlns="http://www.w3.org/2000/svg" xmlns:xlink="http://www.w3.org/1999/xlink">
    <!-- Generator: Sketch 55 (78076) - https://sketchapp.com -->
    <title>icon-code</title>
    <desc>Created with Sketch.</desc>
    <g id="homepage-2" stroke="none" stroke-width="1" fill="none" fill-rule="evenodd">
        <g id="Group-3-Copy" transform="translate(2.000000, 5.000000)" fill="#1A1A1A" fill-rule="nonzero">
            <path d="M21.7285599,36.5182428 C21.5024954,36.5182428 21.2747767,36.4417956 21.0889625,36.2861903 L14.6951937,30.9327136 C14.4746429,30.7478306 14.3478261,30.4778253 14.3478261,30.1926392 C14.3478261,29.907995 14.4751942,29.6379899 14.6951937,29.4531069 L21.0889625,24.0996302 C21.5041496,23.7515513 22.1277571,23.8008895 22.4817411,24.2091505 C22.8351738,24.6179534 22.78555,25.2311581 22.3698116,25.5786948 L16.8599002,30.1926392 L22.3698116,34.8065834 C22.78555,35.1546624 22.8351738,35.7678669 22.4817411,36.1761279 C22.2860022,36.4022165 22.0081082,36.5182428 21.7285599,36.5182428 Z" id="Path"></path>
            <path d="M33.2711967,36.5182428 C32.9916392,36.5182428 32.713736,36.4022165 32.518542,36.1761279 C32.1645463,35.7678669 32.2147232,35.1546624 32.6299239,34.8065834 L38.140017,30.1926392 L32.6299239,25.5786948 C32.2147232,25.2311581 32.1645463,24.6179534 32.518542,24.2091505 C32.8719863,23.8008895 33.4961659,23.7515513 33.9108152,24.0996302 L40.3047948,29.4531069 C40.5253529,29.6379899 40.6521739,29.907995 40.6521739,30.1926392 C40.6521739,30.4778253 40.5253529,30.7478306 40.3047948,30.9327136 L33.9108152,36.2861903 C33.7249949,36.4417956 33.4972687,36.5182428 33.2711967,36.5182428 L33.2711967,36.5182428 Z" id="Path"></path>
            <path d="M25.40407,40.7351103 C25.3428589,40.7351103 25.2811502,40.7284977 25.2189439,40.7152725 C24.7372179,40.6115059 24.4286744,40.1277704 24.5301952,39.6353876 L28.1267175,22.1817403 C28.2282381,21.6893575 28.7010064,21.3739884 29.18323,21.477755 C29.664956,21.5815216 29.9734995,22.0647486 29.8719787,22.55764 L26.2754565,40.0112872 C26.1868746,40.4405961 25.8166225,40.7351103 25.40407,40.7351103 L25.40407,40.7351103 Z" id="Path"></path>
            <path d="M48.9033019,49.7712548 L6.09669811,49.7712548 C2.73520422,49.7712548 0,46.9873983 0,43.5649623 L0,6.57995696 C0,3.15803678 2.73520422,0.373664469 6.09669811,0.373664469 L48.9033019,0.373664469 C52.2647958,0.373664469 55,3.15803678 55,6.57995696 L55,43.5649623 C55,46.9873983 52.2647958,49.7712548 48.9033019,49.7712548 Z M6.09669811,2.22234734 C3.73645717,2.22234734 1.81603774,4.17728827 1.81603774,6.57995696 L1.81603774,43.5649623 C1.81603774,45.967631 3.73645717,47.922572 6.09669811,47.922572 L48.9033019,47.922572 C51.2635428,47.922572 53.1839623,45.967631 53.1839623,43.5649623 L53.1839623,6.57995696 C53.1839623,4.17728827 51.2635428,2.22234734 48.9033019,2.22234734 L6.09669811,2.22234734 Z" id="Shape"></path>
            <path d="M54.0919811,16.0363151 L0.908018868,16.0363151 C0.406378915,16.0363151 0,15.6319072 0,15.1327006 C0,14.6339981 0.406378915,14.2290862 0.908018868,14.2290862 L54.0919811,14.2290862 C54.5936211,14.2290862 55,14.6339981 55,15.1327006 C55,15.6319072 54.5936211,16.0363151 54.0919811,16.0363151 Z" id="Path"></path>
            <path d="M15.5434782,11.8194476 C13.8957932,11.8194476 12.5543478,10.4677173 12.5543478,8.80739941 C12.5543478,7.14655039 13.8957932,5.79535122 15.5434782,5.79535122 C17.1916904,5.79535122 18.5326087,7.14655039 18.5326087,8.80739941 C18.5326087,10.4677173 17.1916904,11.8194476 15.5434782,11.8194476 Z M15.5434782,7.69892741 C14.9373241,7.69892741 14.4434403,8.19606673 14.4434403,8.80739941 C14.4434403,9.41873209 14.9373241,9.91587141 15.5434782,9.91587141 C16.1501594,9.91587141 16.6435162,9.41873209 16.6435162,8.80739941 C16.6435162,8.19606673 16.1501594,7.69892741 15.5434782,7.69892741 Z" id="Shape"></path>
            <path d="M7.17391298,11.8194476 C5.52570095,11.8194476 4.18478261,10.4682484 4.18478261,8.80739934 C4.18478261,7.14655042 5.52570095,5.79535122 7.17391298,5.79535122 C8.82212514,5.79535122 10.1630435,7.14655042 10.1630435,8.80739934 C10.1630435,10.4682484 8.82212514,11.8194476 7.17391298,11.8194476 Z M7.17391298,7.69892745 C6.56775892,7.69892745 6.07387511,8.19659788 6.07387511,8.80739934 C6.07387511,9.41873203 6.56775892,9.91587136 7.17391298,9.91587136 C7.78059422,9.91587136 8.27395097,9.41873203 8.27395097,8.80739934 C8.27395097,8.19659788 7.78059422,7.69892745 7.17391298,7.69892745 Z" id="Shape"></path>
            <path d="M24.5106059,11.8194476 C22.8627757,11.8194476 21.5217391,10.4681293 21.5217391,8.80713384 C21.5217391,7.14666953 22.8627757,5.79535122 24.5106059,5.79535122 C26.1589634,5.79535122 27.5,7.14666953 27.5,8.80713384 C27.5,10.4681293 26.1589634,11.8194476 24.5106059,11.8194476 Z M24.5106059,7.6985641 C23.9043984,7.6985641 23.4109982,8.19574726 23.4109982,8.80713384 C23.4109982,9.41852042 23.9043984,9.91570357 24.5106059,9.91570357 C25.1173407,9.91570357 25.6107409,9.41852042 25.6107409,8.80713384 C25.6107409,8.19574726 25.1173407,7.6985641 24.5106059,7.6985641 Z" id="Shape"></path>
        </g>
        <g id="Group-57" transform="translate(2.000000, 65.373664)" fill="#FFFFFF" fill-rule="nonzero">
            <path d="M21.7285599,36.1445783 C21.5024954,36.1445783 21.2747767,36.0681311 21.0889625,35.9125258 L14.6951937,30.5590492 C14.4746429,30.3741661 14.3478261,30.1041608 14.3478261,29.8189747 C14.3478261,29.5343306 14.4751942,29.2643254 14.6951937,29.0794424 L21.0889625,23.7259657 C21.5041496,23.3778868 22.1277571,23.427225 22.4817411,23.835486 C22.8351738,24.244289 22.78555,24.8574936 22.3698116,25.2050304 L16.8599002,29.8189747 L22.3698116,34.4329189 C22.78555,34.7809979 22.8351738,35.3942024 22.4817411,35.8024634 C22.2860022,36.0285521 22.0081082,36.1445783 21.7285599,36.1445783 Z" id="Path"></path>
            <path d="M33.2711967,36.1445783 C32.9916392,36.1445783 32.713736,36.0285521 32.518542,35.8024634 C32.1645463,35.3942024 32.2147232,34.7809979 32.6299239,34.4329189 L38.140017,29.8189747 L32.6299239,25.2050304 C32.2147232,24.8574936 32.1645463,24.244289 32.518542,23.835486 C32.8719863,23.427225 33.4961659,23.3778868 33.9108152,23.7259657 L40.3047948,29.0794424 C40.5253529,29.2643254 40.6521739,29.5343306 40.6521739,29.8189747 C40.6521739,30.1041608 40.5253529,30.3741661 40.3047948,30.5590492 L33.9108152,35.9125258 C33.7249949,36.0681311 33.4972687,36.1445783 33.2711967,36.1445783 L33.2711967,36.1445783 Z" id="Path"></path>
            <path d="M25.40407,40.3614458 C25.3428589,40.3614458 25.2811502,40.3548332 25.2189439,40.341608 C24.7372179,40.2378414 24.4286744,39.7541059 24.5301952,39.2617231 L28.1267175,21.8080758 C28.2282381,21.315693 28.7010064,21.0003239 29.18323,21.1040905 C29.664956,21.2078571 29.9734995,21.6910841 29.8719787,22.1839755 L26.2754565,39.6376227 C26.1868746,40.0669317 25.8166225,40.3614458 25.40407,40.3614458 L25.40407,40.3614458 Z" id="Path"></path>
            <path d="M48.9033019,49.3975904 L6.09669811,49.3975904 C2.73520422,49.3975904 0,46.6137338 0,43.1912979 L0,6.20629249 C0,2.78437231 2.73520422,-1.3500312e-13 6.09669811,-1.3500312e-13 L48.9033019,-1.3500312e-13 C52.2647958,-1.3500312e-13 55,2.78437231 55,6.20629249 L55,43.1912979 C55,46.6137338 52.2647958,49.3975904 48.9033019,49.3975904 Z M6.09669811,1.84868287 C3.73645717,1.84868287 1.81603774,3.8036238 1.81603774,6.20629249 L1.81603774,43.1912979 C1.81603774,45.5939666 3.73645717,47.5489075 6.09669811,47.5489075 L48.9033019,47.5489075 C51.2635428,47.5489075 53.1839623,45.5939666 53.1839623,43.1912979 L53.1839623,6.20629249 C53.1839623,3.8036238 51.2635428,1.84868287 48.9033019,1.84868287 L6.09669811,1.84868287 Z" id="Shape"></path>
            <path d="M54.0919811,15.6626506 L0.908018868,15.6626506 C0.406378915,15.6626506 0,15.2582427 0,14.7590361 C0,14.2603336 0.406378915,13.8554217 0.908018868,13.8554217 L54.0919811,13.8554217 C54.5936211,13.8554217 55,14.2603336 55,14.7590361 C55,15.2582427 54.5936211,15.6626506 54.0919811,15.6626506 Z" id="Path"></path>
            <path d="M15.5434782,11.4457831 C13.8957932,11.4457831 12.5543478,10.0940529 12.5543478,8.43373494 C12.5543478,6.77288592 13.8957932,5.42168675 15.5434782,5.42168675 C17.1916904,5.42168675 18.5326087,6.77288592 18.5326087,8.43373494 C18.5326087,10.0940529 17.1916904,11.4457831 15.5434782,11.4457831 Z M15.5434782,7.32526294 C14.9373241,7.32526294 14.4434403,7.82240226 14.4434403,8.43373494 C14.4434403,9.04506762 14.9373241,9.54220694 15.5434782,9.54220694 C16.1501594,9.54220694 16.6435162,9.04506762 16.6435162,8.43373494 C16.6435162,7.82240226 16.1501594,7.32526294 15.5434782,7.32526294 Z" id="Shape"></path>
            <path d="M7.17391298,11.4457831 C5.52570095,11.4457831 4.18478261,10.0945839 4.18478261,8.43373487 C4.18478261,6.77288595 5.52570095,5.42168675 7.17391298,5.42168675 C8.82212514,5.42168675 10.1630435,6.77288595 10.1630435,8.43373487 C10.1630435,10.0945839 8.82212514,11.4457831 7.17391298,11.4457831 Z M7.17391298,7.32526298 C6.56775892,7.32526298 6.07387511,7.82293341 6.07387511,8.43373487 C6.07387511,9.04506756 6.56775892,9.54220689 7.17391298,9.54220689 C7.78059422,9.54220689 8.27395097,9.04506756 8.27395097,8.43373487 C8.27395097,7.82293341 7.78059422,7.32526298 7.17391298,7.32526298 Z" id="Shape"></path>
            <path d="M24.5106059,11.4457831 C22.8627757,11.4457831 21.5217391,10.0944648 21.5217391,8.43346937 C21.5217391,6.77300506 22.8627757,5.42168675 24.5106059,5.42168675 C26.1589634,5.42168675 27.5,6.77300506 27.5,8.43346937 C27.5,10.0944648 26.1589634,11.4457831 24.5106059,11.4457831 Z M24.5106059,7.32489964 C23.9043984,7.32489964 23.4109982,7.82208279 23.4109982,8.43346937 C23.4109982,9.04485595 23.9043984,9.5420391 24.5106059,9.5420391 C25.1173407,9.5420391 25.6107409,9.04485595 25.6107409,8.43346937 C25.6107409,7.82208279 25.1173407,7.32489964 24.5106059,7.32489964 Z" id="Shape"></path>
        </g>
    </g>
</svg>