<?xml version="1.0" encoding="UTF-8"?>
<svg width="72px" height="73px" viewBox="0 0 72 73" version="1.1" xmlns="http://www.w3.org/2000/svg" xmlns:xlink="http://www.w3.org/1999/xlink">
    <!-- Generator: Sketch 54.1 (76490) - https://sketchapp.com -->
    <title>Group 5</title>
    <desc>Created with Sketch.</desc>
    <g id="homepage-2" stroke="none" stroke-width="1" fill="none" fill-rule="evenodd">
        <g id="homepage" transform="translate(-713.000000, -2694.000000)" fill="#373737" fill-rule="nonzero">
            <g id="Group-5" transform="translate(713.000000, 2694.000000)">
                <path d="M57.4660714,29.6265411 C57.7038307,25.3161878 56.8306364,22.0521697 54.8680643,19.9193983 C53.4183811,18.3440443 51.7334769,17.8117434 50.7445053,17.6316459 C49.3558837,14.8418466 47.0877217,14.2100782 45.6026426,14.2849999 C42.9211517,11.8297083 40.4277813,11.7799032 38.7720682,12.2000356 C37.8122877,12.4432101 37.0392173,12.862629 36.4995347,13.2286751 C35.959852,12.8627717 35.1874868,12.4432101 34.2270011,12.2000356 C32.570724,11.7799032 30.0779176,11.8289947 27.3969908,14.2849999 C25.9044376,14.2087938 23.6437497,14.8418466 22.2551281,17.6316459 C21.2661565,17.8111726 19.5811113,18.3440443 18.1315691,19.9193983 C16.1697021,22.0521697 15.2963667,25.3169013 15.5341261,29.6265411 C13.8236973,32.5170922 12.4276016,38.3258798 17.7922756,42.4609876 C17.4338033,45.032729 17.9198985,49.1736878 21.6756779,51.35498 C21.5331069,52.3432331 21.5157615,53.8322487 22.3037799,55.1575782 C22.9647396,56.2692737 24.0304259,57.0119263 25.4763016,57.3696953 C26.3370862,58.6943112 28.8045091,62 31.9912738,62 C32.0129908,62 32.0354129,62 32.0578351,61.9994292 C33.7060741,61.9754542 35.1949608,61.085527 36.4995347,59.3476286 C37.8048136,61.085527 39.2937003,61.9754542 40.9417983,61.9994292 C40.9642204,62 40.9859375,62 41.0083596,62 C44.1945602,62 46.6618421,58.6943112 47.5233318,57.3696953 C48.9699126,57.0113555 50.0348938,56.2692737 50.6965586,55.1575782 C51.484577,53.8335331 51.4670906,52.3432331 51.3245196,51.35498 C55.080299,49.1742587 55.5663942,45.0334425 55.2079219,42.4609876 C60.5720318,38.3258798 59.1765002,32.5170922 57.4660714,29.6265411 Z M53.1445207,40.8555223 C52.7094747,41.1490727 52.5034448,41.6913632 52.625991,42.2053975 C52.6788734,42.4240262 53.8577987,47.5807808 49.4086251,49.5101934 C48.8135216,49.7677814 48.5135726,50.4449309 48.7183333,51.0665671 C48.7239741,51.0829785 49.2250173,52.7452417 48.5627885,53.8595059 C48.2054444,54.4597359 47.5451899,54.8339164 46.5455007,55.00274 C46.1819518,55.0645325 45.8632471,55.2868716 45.6759729,55.6092491 C45.0485759,56.6901197 42.9933539,59.4804898 41.0083596,59.4804898 C40.996514,59.4804898 40.9859375,59.4804898 40.9740918,59.4799189 C39.819422,59.4616523 38.6866102,58.4387212 37.6092192,56.43824 C37.3907796,56.0332346 36.9382472,55.7819258 36.4831764,55.7819258 C36.0275415,55.7819258 35.6080077,56.0332346 35.3895681,56.4369556 C34.311472,58.4374368 33.1793653,59.4603679 32.0241314,59.4786346 C32.0129908,59.4792054 32.0017092,59.4792054 31.9905687,59.4792054 C30.0055744,59.4792054 27.9503524,56.6888353 27.3235195,55.6085355 C27.1373734,55.284731 26.8181047,55.0623919 26.4534276,55.000742 C25.45811,54.832632 24.8002528,54.4608776 24.4417806,53.8656424 C23.8772785,52.9277652 24.1361908,51.5212349 24.2811591,51.0645692 C24.4859198,50.4422195 24.1859707,49.7657834 23.5908673,49.5081954 C19.1404245,47.5776412 20.3199139,42.4220283 20.3716681,42.2078235 C20.499291,41.6913632 20.2919919,41.1496435 19.8544076,40.8542379 C14.0122407,36.9123567 17.4307009,31.2768167 17.8376839,30.6507566 C17.9908314,30.4182852 18.0630335,30.1405754 18.0437138,29.862152 C17.7816991,26.1545974 18.430249,23.3232702 19.9184306,21.6737081 C21.3282052,20.1103416 23.0399031,20.0586813 23.1002596,20.0573969 C23.6093409,20.0573969 24.0669501,19.7437247 24.2560576,19.2656528 C25.3682805,16.4513078 27.3209812,16.7902393 27.5219343,16.8336226 C27.9458397,16.9400828 28.3945646,16.8153559 28.703962,16.5022545 C32.3943083,12.7657302 35.2905722,15.3992642 35.602931,15.7055156 C35.8363187,15.9416974 36.1531901,16.0745586 36.4830353,16.0745586 L36.5153289,16.0745586 C36.8389692,16.0745586 37.1571098,15.9396995 37.3892284,15.7117948 C37.7072279,15.3986933 40.6022227,12.763875 44.2951073,16.5022545 C44.5939282,16.8052237 45.0444864,16.9286661 45.4590845,16.8380465 C45.6787933,16.7902393 47.6300838,16.4513078 48.7430118,19.2662236 C48.9315552,19.7442955 49.3897284,20.0579678 49.8982457,20.0579678 C49.9157321,20.0579678 51.6329298,20.1007802 53.0446787,21.6351769 C54.5578208,23.2804577 55.2187804,26.1256277 54.9549324,29.8627228 C54.9356127,30.1385775 55.00852,30.4170008 55.158424,30.6481878 C55.5682274,31.2781011 58.9872516,36.9136411 53.1445207,40.8555223 Z" id="Shape"></path>
                <path d="M23.5904481,18.0634162 C22.9586267,17.8480984 22.2731615,18.198501 22.0622807,18.8506588 C21.8513998,19.5028165 22.1933798,20.2074289 22.826296,20.4252849 C26.4606714,21.6737616 26.5808229,24.6120673 26.5845177,24.765765 C26.5899916,25.4485213 27.1287572,26 27.7926006,26 C28.4600022,26 29.0006836,25.442317 28.9999994,24.7546254 C28.9999994,24.5579205 28.9384183,19.9005975 23.5904481,18.0634162 Z" id="Path"></path>
                <path d="M27.2147338,39.0743964 C26.593658,38.8453836 25.9011394,39.1628848 25.671706,39.7825743 C25.663269,39.8046625 24.793028,42.0399084 23.1502525,42.5154148 C22.2348324,42.7810154 21.1531208,42.4430522 19.9296123,41.5148052 C19.4016162,41.1146426 18.6478609,41.2151914 18.2460123,41.7415143 C17.8436194,42.2666175 17.9456805,43.0173457 18.4729962,43.4180503 C19.8604829,44.4706959 21.211908,45 22.508084,45 C22.9525261,45 23.3904363,44.9378007 23.820998,44.8121824 C26.6410143,43.9964092 27.8740486,40.7479512 27.9250791,40.610408 C28.155329,39.9907185 27.8370344,39.3034092 27.2147338,39.0743964 Z" id="Path"></path>
                <path d="M31.6306929,47.3736615 C31.1388549,46.8754462 30.3400288,46.8754462 29.8476193,47.3736615 C26.1944755,51.0698791 27.0834409,54.8804246 27.1231537,55.0411486 C27.2655767,55.6184251 27.776414,56 28.3401064,56 C28.4378169,56 28.5362417,55.9885817 28.6358092,55.9648778 C29.3073546,55.8034311 29.7240527,55.1176081 29.5733442,54.4364102 C29.5500594,54.3304654 29.0285083,51.8106258 31.6306929,49.1777591 C32.1231024,48.6795437 32.1231024,47.8718769 31.6306929,47.3736615 Z" id="Path"></path>
                <path d="M33.3060881,29.2812651 C31.7451315,28.5302924 30.5463419,29.4335966 29.4891215,30.2311455 C28.6490875,30.8648557 27.6032381,31.6544592 25.9307034,32.2989916 C22.8954943,33.469013 20.3452591,30.5032053 20.2324018,30.3689562 C19.7983131,29.8501796 19.0103016,29.7649726 18.4707467,30.1827884 C17.9299127,30.6000564 17.8420716,31.3606182 18.2750231,31.8824086 C18.4018099,32.0347402 20.9125308,35 24.4696697,35 C25.224421,35 26.0267885,34.8664359 26.8624162,34.5453341 C28.867411,33.7725802 30.1209237,32.8263985 31.0362907,32.1358379 C31.4240424,31.8425449 31.9553532,31.4417156 32.1198066,31.4199344 C32.1198066,31.4199344 32.139848,31.424181 32.1837686,31.4452773 C32.8036312,31.7439129 33.5571033,31.5014427 33.8676742,30.9041715 C34.1768238,30.3062154 33.9259507,29.5800377 33.3060881,29.2812651 Z" id="Path"></path>
                <path d="M50.937563,18.8525803 C50.7268238,18.1997745 50.044795,17.8459949 49.4094298,18.0647258 C44.0615796,19.9033353 44,24.5635731 44,24.7611365 C44,25.443718 44.5332797,25.9925208 45.1953294,26 C45.1995715,26 45.2038137,26 45.2080558,26 C45.8646317,26 46.4016062,25.4519027 46.4154274,24.7742604 C46.4178906,24.6483843 46.5205234,21.684228 50.1735648,20.4285716 C50.8064668,20.2109697 51.1488496,19.5053862 50.937563,18.8525803 Z" id="Path"></path>
                <path d="M53.7542607,41.7420194 C53.3524003,41.216932 52.5986229,41.1151667 52.0706113,41.5153171 C50.8495165,42.4423165 49.7700866,42.7779659 48.8577697,42.5183356 C47.4858921,42.1265866 46.5662266,40.4099914 46.3272605,39.7802931 C46.0972761,39.1618418 45.4035124,38.8448923 44.7859565,39.0751177 C44.1630934,39.3035815 43.8447895,39.9914121 44.0747739,40.6110829 C44.125806,40.7486219 45.3590124,43.9969815 48.1789754,44.8127301 C48.6096859,44.9376671 49.0474728,45 49.4913836,45 C50.7870533,45 52.1390623,44.470712 53.5265897,43.4186402 C54.0546013,43.0178122 54.156121,42.2671067 53.7542607,41.7420194 Z" id="Path"></path>
                <path d="M41.1526446,43.3733677 C40.6601748,42.8755441 39.8618222,42.8755441 39.3693524,43.3733677 C38.8768825,43.8706137 38.8768825,44.6782231 39.3693524,45.1760468 C41.956712,47.7915344 41.4559557,50.2953837 41.4269533,50.4286855 C41.2660827,51.1068926 41.6766885,51.7915986 42.3476019,51.9617281 C42.4503248,51.9878685 42.5531905,52 42.6547705,52 C43.2198178,52 43.733718,51.6136704 43.8768728,51.0349703 C43.9164476,50.8742282 44.8056649,47.0668234 41.1526446,43.3733677 Z" id="Path"></path>
                <path d="M52.9283168,34.7983492 C52.70442,34.1264674 52.0190326,33.7782584 51.3972476,34.0181847 C51.2445475,34.077248 47.6346688,35.4345286 45.7581937,32.7296644 C44.7263155,31.2407402 44.2791999,29.9560399 43.9199614,28.9236074 C43.4680994,27.6253901 42.9550759,26.1532152 41.2953102,26.0054101 C40.6339263,25.9398821 40.0586565,26.4774757 40.0041401,27.1915246 C39.9496238,27.9055735 40.4398643,28.531909 41.0989427,28.5903846 C41.1318967,28.5936169 41.1504756,28.5981716 41.1552221,28.5981716 L41.1557645,28.5981716 C41.2904281,28.7207059 41.5155454,29.3665822 41.6795014,29.8393825 C42.0703377,30.9632014 42.6066865,32.5026673 43.8445607,34.2880834 C45.349321,36.4572641 47.4395219,37 49.1557027,37 C50.8042126,37 52.1071809,36.4994312 52.2155356,36.4565295 C52.8343371,36.2113139 53.1522136,35.4700841 52.9283168,34.7983492 Z" id="Path"></path>
                <path d="M36,14 C35.4480063,14 35,14.5676237 35,15.2669992 L35,57.7330008 C35,58.4323763 35.4480063,59 36,59 C36.5519937,59 37,58.4323763 37,57.7330008 L37,15.2668557 C37,14.5676237 36.5519937,14 36,14 Z" id="Path"></path>
                <path d="M29.455444,41.7076348 C25.7826341,39.2017823 28.216075,34.0348525 28.3249544,33.8088906 C28.6251346,33.1906849 28.3806408,32.4410697 27.7770942,32.1320377 C27.1736862,31.8235727 26.438681,32.073917 26.1360073,32.691981 C24.8991317,35.2242004 23.7172499,40.801519 28.098053,43.7897732 C28.3059767,43.9323815 28.541882,44 28.7748784,44 C29.1698087,44 29.5580899,43.8047995 29.7946879,43.4424666 C30.1689781,42.8676388 30.017295,42.0905225 29.455444,41.7076348 Z" id="Path"></path>
                <path d="M36,0 C35.4480063,0 35,0.576026799 35,1.2857559 L35,7.7142441 C35,8.4239732 35.4480063,9 36,9 C36.5519937,9 37,8.4239732 37,7.7142441 L37,1.2857559 C37,0.576026799 36.5519937,0 36,0 Z" id="Path"></path>
                <path d="M36,64 C35.4480063,64 35,64.5760268 35,65.2857559 L35,71.7142441 C35,72.4239732 35.4480063,73 36,73 C36.5519937,73 37,72.4239732 37,71.7142441 L37,65.2857559 C37,64.5760268 36.5519937,64 36,64 Z" id="Path"></path>
                <path d="M7.7142441,35 L1.2857559,35 C0.576026799,35 0,35.6720095 0,36.5 C0,37.3279905 0.576026799,38 1.2857559,38 L7.7142441,38 C8.4239732,38 9,37.3279905 9,36.5 C9,35.6720095 8.42382756,35 7.7142441,35 Z" id="Path"></path>
                <path d="M70.7142441,35 L64.2857559,35 C63.5760268,35 63,35.6720095 63,36.5 C63,37.3279905 63.5760268,38 64.2857559,38 L70.7142441,38 C71.4239732,38 72,37.3279905 72,36.5 C72,35.6720095 71.4239732,35 70.7142441,35 Z" id="Path"></path>
                <path d="M16.6296393,14.8414043 L12.1585214,10.370355 C11.6652801,9.87654833 10.8636019,9.87654833 10.3703607,10.370355 C9.87654643,10.8641617 9.87654643,11.6646815 10.3703607,12.1584882 L14.8414786,16.6295375 C15.0880276,16.876799 15.4117933,17 15.735559,17 C16.0593246,17 16.3830903,16.8766558 16.6296393,16.6295375 C17.1234536,16.1358741 17.1234536,15.3353543 16.6296393,14.8414043 Z" id="Path"></path>
                <path d="M61.6295072,60.8412276 L57.1586649,56.3703853 C56.6648178,55.8765382 55.8642325,55.8765382 55.3703853,56.3703853 C54.8765382,56.8642325 54.8765382,57.6648178 55.3703853,58.1586649 L59.8412276,62.6295072 C60.0885093,62.8767889 60.4115802,63 60.7353674,63 C61.0584383,63 61.3822255,62.8760726 61.6295072,62.6295072 C62.1234976,62.1356601 62.1234976,61.3350747 61.6295072,60.8412276 Z" id="Path"></path>
                <path d="M61.629609,10.3703474 C61.1357543,9.87655085 60.3351566,9.87655085 59.8413019,10.3703474 L55.370391,14.8413052 C54.8765363,15.3358181 54.8765363,16.1361783 55.370391,16.6301181 C55.6176766,16.8766583 55.9407524,17 56.2645446,17 C56.5883367,17 56.9121289,16.8766583 57.1586981,16.6301181 L61.629609,12.1591603 C62.1234637,11.6646475 62.1234637,10.864144 61.629609,10.3703474 Z" id="Path"></path>
                <path d="M16.6296941,56.3703853 C16.1352129,55.8765382 15.3349039,55.8765382 14.8409957,56.3703853 L10.3703238,60.8412276 C9.87655875,61.3345017 9.87655875,62.1356601 10.3703238,62.6295072 C10.6175644,62.8767889 10.9412977,63 11.2648879,63 C11.5886212,63 11.9116384,62.8760726 12.158879,62.6295072 L16.6295509,58.1586649 C17.1234592,57.6653909 17.1234592,56.8642325 16.6296941,56.3703853 Z" id="Path"></path>
            </g>
        </g>
    </g>
</svg>