<?xml version="1.0" encoding="UTF-8"?>
<svg width="766px" height="351px" viewBox="0 0 766 351" version="1.1" xmlns="http://www.w3.org/2000/svg" xmlns:xlink="http://www.w3.org/1999/xlink">
    <!-- Generator: Sketch 54.1 (76490) - https://sketchapp.com -->
    <title>Group 30</title>
    <desc>Created with Sketch.</desc>
    <defs>
        <path d="M48,48 L718,48 L718,303 L48,303 L48,48 Z M177,116 C146.072054,116 121,141.072054 121,172 C121,202.927946 146.072054,228 177,228 L601,228 C631.927946,228 657,202.927946 657,172 C657,141.072054 631.927946,116 601,116 L177,116 Z" id="path-1"></path>
        <filter x="-5.4%" y="-14.1%" width="110.7%" height="128.2%" filterUnits="objectBoundingBox" id="filter-2">
            <feOffset dx="0" dy="0" in="SourceAlpha" result="shadowOffsetOuter1"></feOffset>
            <feGaussianBlur stdDeviation="12" in="shadowOffsetOuter1" result="shadowBlurOuter1"></feGaussianBlur>
            <feColorMatrix values="0 0 0 0 0   0 0 0 0 0   0 0 0 0 0  0 0 0 0.116914336 0" type="matrix" in="shadowBlurOuter1"></feColorMatrix>
        </filter>
    </defs>
    <g id="homepage-2" stroke="none" stroke-width="1" fill="none" fill-rule="evenodd">
        <g id="Group-30">
            <g id="Combined-Shape">
                <use fill="black" fill-opacity="1" filter="url(#filter-2)" xlink:href="#path-1"></use>
                <use fill="#FFFFFF" fill-rule="evenodd" xlink:href="#path-1"></use>
            </g>
            <path d="M718,351 L48,351 L0,351 L0,0 L48,0 L718,0 L766,0 L766,351 L718,351 Z M718,303 L718,48 L48,48 L48,303 L718,303 Z" id="Combined-Shape" fill="#FFFFFF"></path>
        </g>
    </g>
</svg>