{
    "title": "Ibuildings Styleguide",
    "source": "src/sass/",
    "destination": "docs/styleguide/",
    "builder": "node_modules/michelangelo/kss_styleguide/custom-template/",
    "homepage": "../docs/index.md",
    "css": [
      "../../dist/css/app.css",
      "../../dist/css/kss.css"

    ],
    "js" : [
      "../../dist/js/jquery-min.js",
      "../../dist/js/libs/jquery.plate.js",
      "../../dist/js/libs/slick.min.js",
      "../../dist/js/libs/animate-scroll.js",
      "../../dist/js/app.js"
    ]
}