<?xml version="1.0" encoding="UTF-8"?>
<svg width="60px" height="120px" viewBox="0 0 60 120" version="1.1" xmlns="http://www.w3.org/2000/svg" xmlns:xlink="http://www.w3.org/1999/xlink">
    <!-- Generator: Sketch 55 (78076) - https://sketchapp.com -->
    <title>icon-idea</title>
    <desc>Created with Sketch.</desc>
    <g id="homepage-2" stroke="none" stroke-width="1" fill="none" fill-rule="evenodd">
        <g id="Group-4" transform="translate(10.000000, 2.000000)" fill="#373737" fill-rule="nonzero">
            <path d="M15.2236154,46.5757576 C14.7698665,46.5757576 14.4,46.2160649 14.4,45.7727273 C14.4,45.3293897 14.7681397,44.969697 15.2236154,44.969697 L24.7781114,44.969697 C25.2318603,44.969697 25.6,45.3293897 25.6,45.7727273 C25.6,46.2160649 25.2318603,46.5757576 24.7781114,46.5757576 L15.2236154,46.5757576 Z" id="Path"></path>
            <path d="M16.7969789,49.7878788 C16.3569822,49.7878788 16,49.4281861 16,48.9848485 C16,48.5415109 16.3586566,48.1818182 16.7969789,48.1818182 L24.0030211,48.1818182 C24.4430178,48.1818182 24.8,48.5415109 24.8,48.9848485 C24.8,49.4281861 24.4430178,49.7878788 24.0030211,49.7878788 L16.7969789,49.7878788 Z" id="Path"></path>
            <path d="M19.2,38.5334043 C19.2,38.9836399 18.8578513,39.3484848 18.4357624,39.3484848 C18.0136736,39.3484848 17.6715249,38.9835076 17.6715249,38.5334043 C17.6683,35.0870877 17.5755843,32.5122056 17.1294948,30.1282122 C16.6882427,27.7716021 15.89833,25.5871623 14.4961839,22.8928259 C14.2915272,22.4989442 14.424244,22.002673 14.7920058,21.784401 C15.16138,21.566129 15.6266328,21.7076751 15.8329019,22.0999032 C17.321438,24.961317 18.1640652,27.2907423 18.6340933,29.8094028 C19.0992841,32.2956533 19.1968371,34.9660459 19.2,38.5334043 Z" id="Path"></path>
            <path d="M22.3288401,38.533454 C22.3288401,38.9836621 21.9865477,39.3484848 21.5644201,39.3484848 C21.1422925,39.3484848 20.8,38.9835299 20.8,38.533454 C20.8032877,34.966181 20.9007399,32.2977371 21.3661038,29.8099848 C21.8363062,27.291478 22.6791347,24.9623271 24.1680262,22.1009556 C24.3727938,21.7070979 24.8397085,21.5655605 25.2076201,21.7854726 C25.5770826,22.0037313 25.7080941,22.5016257 25.5035127,22.8938299 C24.1009696,25.5879358 23.3109304,27.7740281 22.8695108,30.1287748 C22.4248036,32.5126227 22.330515,35.0874138 22.3288401,38.533454 Z" id="Path"></path>
            <path d="M14.209169,22.6720233 C13.7477631,22.5185107 13.4950801,22.0006009 13.6415908,21.5170696 C13.789877,21.0336128 14.2823888,20.7688537 14.7438657,20.9223663 C15.3554041,21.1296047 15.8845614,21.4077579 16.3733803,21.6648525 L16.4209625,21.6917153 C17.1844092,22.0945837 17.8198098,22.409199 18.2921524,22.0063306 L19.3724116,21.0835434 C19.7477433,20.7651331 20.3008337,20.8245885 20.6046499,21.2178577 C20.9086082,21.6111268 20.8517936,22.1905011 20.4764619,22.5089859 L19.3962027,23.4317731 C18.0504772,24.5789879 16.9500488,24.0207466 15.6244924,23.3243217 L15.5842251,23.3051233 C15.1557717,23.0786866 14.690673,22.8350607 14.209169,22.6720233 Z" id="Path"></path>
            <path d="M20.8,3.99806435 C20.8,4.45083547 20.4416791,4.81818182 19.9999677,4.81818182 C19.5583209,4.81818182 19.2,4.45083547 19.2,3.99806435 L19.2,0.820117464 C19.2,0.367346352 19.5583209,0 19.9999677,0 C20.4417438,0 20.8,0.367346352 20.8,0.820117464 L20.8,3.99806435 Z" id="Path"></path>
            <path d="M25.2558491,20.9230136 C25.7171002,20.7678057 26.2112927,21.0342162 26.3577544,21.5170852 C26.5059908,22.0000286 26.2516176,22.5174626 25.7903665,22.6708121 C25.3090949,22.8336764 24.8441521,23.0789762 24.4139255,23.3051724 L24.3737427,23.3243504 C23.0503346,24.0199613 21.9485713,24.5796166 20.6032969,23.4316133 L19.5233999,22.5098806 C19.1481941,22.1917341 19.0914695,21.6129752 19.3952549,21.2201237 C19.6991112,20.8272723 20.2518743,20.76788 20.6271511,21.0859522 L21.7070481,22.0077592 C22.1793033,22.4101996 22.8125741,22.0939858 23.5776816,21.6934781 L23.6253899,21.6666438 C24.1155357,21.4078896 24.6444446,21.1300318 25.2558491,20.9230136 Z" id="Path"></path>
            <path d="M30.8642187,12.3780342 C33.5415746,15.0628107 35.2,18.7745993 35.2,22.8721323 C35.2,24.4743572 34.9435702,26.0225928 34.4721829,27.4737013 C33.9852688,28.9733396 33.2626273,30.3722112 32.352856,31.6199663 C30.8261744,33.7138925 29.5871781,35.0884318 28.6253814,36.1570311 C26.8941608,38.0771937 26.1351554,38.9183769 26.1351554,41.7265001 C26.1351554,42.186994 25.762576,42.5606061 25.3033549,42.5606061 L25.2824507,42.5606061 L20.4354902,42.5606061 L15.5660122,42.5606061 C15.1067911,42.5606061 14.7324641,42.186994 14.7324641,41.7265001 C14.7324641,38.9461468 13.9578645,38.0964034 12.2388101,36.2074482 L12.2370625,36.2057631 L12.2353148,36.2074482 C11.2631669,35.140534 10.0120045,33.7659273 8.44714399,31.6198989 C7.53737266,30.3721438 6.81473125,28.9715871 6.32781706,27.4719488 C5.85642982,26.0226602 5.6,24.4726048 5.6,22.8721997 C5.6,20.8669078 6.00033971,18.9484303 6.72466153,17.196774 L6.74025569,17.1637468 C7.49233781,15.3564834 8.58755864,13.7299936 9.93746168,12.3781016 C11.2961028,11.0157622 12.9267679,9.91400082 14.7428826,9.1598342 L14.7428826,9.15808173 C16.4896301,8.43175235 18.4028049,8.03030303 20.4026214,8.03030303 C22.3990771,8.03030303 24.3103699,8.43175235 26.0589323,9.15808173 C27.8714844,9.91224836 29.5055776,11.0156948 30.8642187,12.3780342 L30.8642187,12.3780342 Z M33.5346513,22.8721323 C33.5346513,19.2350932 32.0632886,15.9421438 29.6875991,13.557915 C28.472935,12.3397496 27.0258374,11.3597171 25.4246129,10.6958699 C23.8823371,10.0546698 22.1840525,9.70020008 20.399059,9.70020008 C18.6158803,9.70020008 16.9176629,10.0546698 15.3770675,10.6958699 L15.3770675,10.6941848 L15.3735722,10.6958699 C13.7723478,11.3597171 12.3271322,12.3397496 11.1123337,13.557915 C9.90970139,14.7638806 8.93755342,16.2027219 8.2737934,17.7909945 L8.25645162,17.8361542 C7.61877149,19.3809522 7.26353385,21.0839439 7.26353385,22.8720649 C7.26353385,24.3004588 7.49052297,25.6767505 7.90645684,26.9573981 C8.3414129,28.2901478 8.98084066,29.5310279 9.78494811,30.6361594 C11.2874319,32.6970584 12.5108341,34.0403903 13.4622122,35.0864097 L13.4604646,35.0880948 C15.3111956,37.116034 16.2313854,38.1308461 16.3752281,40.8938095 L20.4319949,40.8938095 L24.4887617,40.8938095 C24.6308568,38.1117712 25.5337048,37.107339 27.3931067,35.0463727 C28.3219674,34.0159232 29.5159289,32.6900485 31.0114894,30.6395295 C31.8155297,29.5360831 32.4550246,28.2953378 32.8882331,26.9625207 C33.3076622,25.6768179 33.5346513,24.3022786 33.5346513,22.8721323 Z" id="Shape"></path>
            <path d="M17.6512224,53 C17.1812788,53 16.8,52.6403073 16.8,52.1969697 C16.8,51.7536321 17.1812788,51.3939394 17.6512224,51.3939394 L23.1487776,51.3939394 C23.6187212,51.3939394 24,51.7536321 24,52.1969697 C24,52.6403073 23.6187212,53 23.1487776,53 L17.6512224,53 Z" id="Path"></path>
            <path d="M30.314135,6.85292565 C30.0917333,7.20960847 29.5945382,7.33321563 29.2059442,7.12829595 C28.8190613,6.92337627 28.6851201,6.46499212 28.9073902,6.10673159 L30.4855271,3.58646829 C30.7077972,3.22978547 31.2050581,3.10617831 31.5935863,3.31109799 C31.9821804,3.51601767 32.114542,3.97440182 31.892272,4.33266235 L30.314135,6.85292565 Z" id="Path"></path>
            <path d="M11.0921999,6.10782992 C11.3145892,6.4646462 11.1822224,6.92320186 10.793354,7.12825892 C10.4062636,7.33325527 9.90880179,7.20960186 9.68641251,6.85278558 L8.10742889,4.33151859 C7.88503961,3.97470231 8.01911855,3.51614664 8.40627477,3.31115029 C8.79507734,3.10615393 9.29253917,3.22974664 9.51492845,3.58656292 L11.0921999,6.10782992 Z" id="Path"></path>
            <path d="M3.62706746,12.9338794 C3.98240249,13.157113 4.10554258,13.6564636 3.90139723,14.0467424 C3.69725187,14.4353025 3.24053937,14.5699566 2.88520434,14.346723 L0.374403894,12.7617442 C0.0174971235,12.5385106 -0.105582515,12.0391599 0.0985628382,11.6505999 C0.302708191,11.2603211 0.759360249,11.1273857 1.11626702,11.3506193 L3.62706746,12.9338794 Z" id="Path"></path>
            <path d="M37.1163394,14.3467548 C36.7594357,14.569893 36.3027876,14.4353625 36.098644,14.0469026 C35.8944399,13.6567908 36.017579,13.1576538 36.3729109,12.9345156 L38.8836896,11.3502149 C39.2404724,11.1270767 39.6971205,11.2616072 39.901385,11.6500671 C40.1055286,12.038461 39.98245,12.5393159 39.6270576,12.7624541 L37.1163394,14.3467548 Z" id="Path"></path>
            <path d="M11.2228038,26.9404666 C11.4015107,27.3674541 11.2018075,27.8611647 10.7761045,28.0404108 C10.3504015,28.2196569 9.85817601,28.0192829 9.67946909,27.5923637 C9.39387776,26.9142272 9.17141142,26.1990829 9.02423302,25.4611068 C8.8788213,24.7319227 8.8,23.9869267 8.8,23.2383867 C8.8,22.7727557 9.17841021,22.3949758 9.64087383,22.3949758 C10.1051041,22.3949758 10.4817477,22.7745277 10.4817477,23.2383867 C10.4817477,23.8973036 10.5465714,24.5316168 10.6674534,25.1325343 C10.7918687,25.7579193 10.9810399,26.3658567 11.2228038,26.9404666 L11.2228038,26.9404666 Z M11.2228038,19.5342622 C11.0441648,19.9612496 10.5518714,20.1615554 10.1261684,19.9823093 C9.70046545,19.8030632 9.50076217,19.3092844 9.67946909,18.8823651 C9.9614591,18.2128843 10.3065741,17.5785711 10.7007486,16.9899214 L10.7025153,16.9881494 L10.7007486,16.9864455 C11.1054552,16.385528 11.5643855,15.8267299 12.0671431,15.3224553 C12.5646686,14.8234287 13.1217857,14.3630456 13.7278264,13.9537101 L13.7278264,13.9519381 C14.3094733,13.5583464 14.9453438,13.2121901 15.6180428,12.9275772 C16.2925086,12.6411242 17.003735,12.4179866 17.7412577,12.2703641 C18.4682484,12.1227417 19.2145366,12.0454545 19.9590582,12.0454545 C20.4234244,12.0454545 20.8,12.4232345 20.8,12.8888655 C20.8,13.3544965 20.4233565,13.7322764 19.9590582,13.7322764 C19.3003567,13.7322764 18.6662529,13.7972957 18.0688418,13.9167704 C17.4434355,14.0415612 16.8390256,14.2330751 16.2679788,14.4755004 C15.7126963,14.7109739 15.1765756,15.0043787 14.6668192,15.348763 L14.6668192,15.348763 L14.6650525,15.348763 C14.1692937,15.6825833 13.6962979,16.0761751 13.258364,16.5154985 C12.8256622,16.9495058 12.4332544,17.4257007 12.0951382,17.9299753 L12.0933715,17.9282033 C11.7518578,18.43609 11.4592677,18.9737602 11.2228038,19.5342622 Z" id="Shape"></path>
        </g>
        <g id="Group-60" transform="translate(8.826172, 62.000000)" fill="#FFFFFF" fill-rule="nonzero">
            <path d="M15.2236154,46.5757576 C14.7698665,46.5757576 14.4,46.2160649 14.4,45.7727273 C14.4,45.3293897 14.7681397,44.969697 15.2236154,44.969697 L24.7781114,44.969697 C25.2318603,44.969697 25.6,45.3293897 25.6,45.7727273 C25.6,46.2160649 25.2318603,46.5757576 24.7781114,46.5757576 L15.2236154,46.5757576 Z" id="Path"></path>
            <path d="M16.7969789,49.7878788 C16.3569822,49.7878788 16,49.4281861 16,48.9848485 C16,48.5415109 16.3586566,48.1818182 16.7969789,48.1818182 L24.0030211,48.1818182 C24.4430178,48.1818182 24.8,48.5415109 24.8,48.9848485 C24.8,49.4281861 24.4430178,49.7878788 24.0030211,49.7878788 L16.7969789,49.7878788 Z" id="Path"></path>
            <path d="M19.2,38.5334043 C19.2,38.9836399 18.8578513,39.3484848 18.4357624,39.3484848 C18.0136736,39.3484848 17.6715249,38.9835076 17.6715249,38.5334043 C17.6683,35.0870877 17.5755843,32.5122056 17.1294948,30.1282122 C16.6882427,27.7716021 15.89833,25.5871623 14.4961839,22.8928259 C14.2915272,22.4989442 14.424244,22.002673 14.7920058,21.784401 C15.16138,21.566129 15.6266328,21.7076751 15.8329019,22.0999032 C17.321438,24.961317 18.1640652,27.2907423 18.6340933,29.8094028 C19.0992841,32.2956533 19.1968371,34.9660459 19.2,38.5334043 Z" id="Path"></path>
            <path d="M22.3288401,38.533454 C22.3288401,38.9836621 21.9865477,39.3484848 21.5644201,39.3484848 C21.1422925,39.3484848 20.8,38.9835299 20.8,38.533454 C20.8032877,34.966181 20.9007399,32.2977371 21.3661038,29.8099848 C21.8363062,27.291478 22.6791347,24.9623271 24.1680262,22.1009556 C24.3727938,21.7070979 24.8397085,21.5655605 25.2076201,21.7854726 C25.5770826,22.0037313 25.7080941,22.5016257 25.5035127,22.8938299 C24.1009696,25.5879358 23.3109304,27.7740281 22.8695108,30.1287748 C22.4248036,32.5126227 22.330515,35.0874138 22.3288401,38.533454 Z" id="Path"></path>
            <path d="M14.209169,22.6720233 C13.7477631,22.5185107 13.4950801,22.0006009 13.6415908,21.5170696 C13.789877,21.0336128 14.2823888,20.7688537 14.7438657,20.9223663 C15.3554041,21.1296047 15.8845614,21.4077579 16.3733803,21.6648525 L16.4209625,21.6917153 C17.1844092,22.0945837 17.8198098,22.409199 18.2921524,22.0063306 L19.3724116,21.0835434 C19.7477433,20.7651331 20.3008337,20.8245885 20.6046499,21.2178577 C20.9086082,21.6111268 20.8517936,22.1905011 20.4764619,22.5089859 L19.3962027,23.4317731 C18.0504772,24.5789879 16.9500488,24.0207466 15.6244924,23.3243217 L15.5842251,23.3051233 C15.1557717,23.0786866 14.690673,22.8350607 14.209169,22.6720233 Z" id="Path"></path>
            <path d="M20.8,3.99806435 C20.8,4.45083547 20.4416791,4.81818182 19.9999677,4.81818182 C19.5583209,4.81818182 19.2,4.45083547 19.2,3.99806435 L19.2,0.820117464 C19.2,0.367346352 19.5583209,8.2600593e-14 19.9999677,8.2600593e-14 C20.4417438,8.2600593e-14 20.8,0.367346352 20.8,0.820117464 L20.8,3.99806435 Z" id="Path"></path>
            <path d="M25.2558491,20.9230136 C25.7171002,20.7678057 26.2112927,21.0342162 26.3577544,21.5170852 C26.5059908,22.0000286 26.2516176,22.5174626 25.7903665,22.6708121 C25.3090949,22.8336764 24.8441521,23.0789762 24.4139255,23.3051724 L24.3737427,23.3243504 C23.0503346,24.0199613 21.9485713,24.5796166 20.6032969,23.4316133 L19.5233999,22.5098806 C19.1481941,22.1917341 19.0914695,21.6129752 19.3952549,21.2201237 C19.6991112,20.8272723 20.2518743,20.76788 20.6271511,21.0859522 L21.7070481,22.0077592 C22.1793033,22.4101996 22.8125741,22.0939858 23.5776816,21.6934781 L23.6253899,21.6666438 C24.1155357,21.4078896 24.6444446,21.1300318 25.2558491,20.9230136 Z" id="Path"></path>
            <path d="M30.8642187,12.3780342 C33.5415746,15.0628107 35.2,18.7745993 35.2,22.8721323 C35.2,24.4743572 34.9435702,26.0225928 34.4721829,27.4737013 C33.9852688,28.9733396 33.2626273,30.3722112 32.352856,31.6199663 C30.8261744,33.7138925 29.5871781,35.0884318 28.6253814,36.1570311 C26.8941608,38.0771937 26.1351554,38.9183769 26.1351554,41.7265001 C26.1351554,42.186994 25.762576,42.5606061 25.3033549,42.5606061 L25.2824507,42.5606061 L20.4354902,42.5606061 L15.5660122,42.5606061 C15.1067911,42.5606061 14.7324641,42.186994 14.7324641,41.7265001 C14.7324641,38.9461468 13.9578645,38.0964034 12.2388101,36.2074482 L12.2370625,36.2057631 L12.2353148,36.2074482 C11.2631669,35.140534 10.0120045,33.7659273 8.44714399,31.6198989 C7.53737266,30.3721438 6.81473125,28.9715871 6.32781706,27.4719488 C5.85642982,26.0226602 5.6,24.4726048 5.6,22.8721997 C5.6,20.8669078 6.00033971,18.9484303 6.72466153,17.196774 L6.74025569,17.1637468 C7.49233781,15.3564834 8.58755864,13.7299936 9.93746168,12.3781016 C11.2961028,11.0157622 12.9267679,9.91400082 14.7428826,9.1598342 L14.7428826,9.15808173 C16.4896301,8.43175235 18.4028049,8.03030303 20.4026214,8.03030303 C22.3990771,8.03030303 24.3103699,8.43175235 26.0589323,9.15808173 C27.8714844,9.91224836 29.5055776,11.0156948 30.8642187,12.3780342 L30.8642187,12.3780342 Z M33.5346513,22.8721323 C33.5346513,19.2350932 32.0632886,15.9421438 29.6875991,13.557915 C28.472935,12.3397496 27.0258374,11.3597171 25.4246129,10.6958699 C23.8823371,10.0546698 22.1840525,9.70020008 20.399059,9.70020008 C18.6158803,9.70020008 16.9176629,10.0546698 15.3770675,10.6958699 L15.3770675,10.6941848 L15.3735722,10.6958699 C13.7723478,11.3597171 12.3271322,12.3397496 11.1123337,13.557915 C9.90970139,14.7638806 8.93755342,16.2027219 8.2737934,17.7909945 L8.25645162,17.8361542 C7.61877149,19.3809522 7.26353385,21.0839439 7.26353385,22.8720649 C7.26353385,24.3004588 7.49052297,25.6767505 7.90645684,26.9573981 C8.3414129,28.2901478 8.98084066,29.5310279 9.78494811,30.6361594 C11.2874319,32.6970584 12.5108341,34.0403903 13.4622122,35.0864097 L13.4604646,35.0880948 C15.3111956,37.116034 16.2313854,38.1308461 16.3752281,40.8938095 L20.4319949,40.8938095 L24.4887617,40.8938095 C24.6308568,38.1117712 25.5337048,37.107339 27.3931067,35.0463727 C28.3219674,34.0159232 29.5159289,32.6900485 31.0114894,30.6395295 C31.8155297,29.5360831 32.4550246,28.2953378 32.8882331,26.9625207 C33.3076622,25.6768179 33.5346513,24.3022786 33.5346513,22.8721323 Z" id="Shape"></path>
            <path d="M17.6512224,53 C17.1812788,53 16.8,52.6403073 16.8,52.1969697 C16.8,51.7536321 17.1812788,51.3939394 17.6512224,51.3939394 L23.1487776,51.3939394 C23.6187212,51.3939394 24,51.7536321 24,52.1969697 C24,52.6403073 23.6187212,53 23.1487776,53 L17.6512224,53 Z" id="Path"></path>
            <path d="M30.314135,6.85292565 C30.0917333,7.20960847 29.5945382,7.33321563 29.2059442,7.12829595 C28.8190613,6.92337627 28.6851201,6.46499212 28.9073902,6.10673159 L30.4855271,3.58646829 C30.7077972,3.22978547 31.2050581,3.10617831 31.5935863,3.31109799 C31.9821804,3.51601767 32.114542,3.97440182 31.892272,4.33266235 L30.314135,6.85292565 Z" id="Path"></path>
            <path d="M11.0921999,6.10782992 C11.3145892,6.4646462 11.1822224,6.92320186 10.793354,7.12825892 C10.4062636,7.33325527 9.90880179,7.20960186 9.68641251,6.85278558 L8.10742889,4.33151859 C7.88503961,3.97470231 8.01911855,3.51614664 8.40627477,3.31115029 C8.79507734,3.10615393 9.29253917,3.22974664 9.51492845,3.58656292 L11.0921999,6.10782992 Z" id="Path"></path>
            <path d="M3.62706746,12.9338794 C3.98240249,13.157113 4.10554258,13.6564636 3.90139723,14.0467424 C3.69725187,14.4353025 3.24053937,14.5699566 2.88520434,14.346723 L0.374403894,12.7617442 C0.0174971235,12.5385106 -0.105582515,12.0391599 0.0985628382,11.6505999 C0.302708191,11.2603211 0.759360249,11.1273857 1.11626702,11.3506193 L3.62706746,12.9338794 Z" id="Path"></path>
            <path d="M37.1163394,14.3467548 C36.7594357,14.569893 36.3027876,14.4353625 36.098644,14.0469026 C35.8944399,13.6567908 36.017579,13.1576538 36.3729109,12.9345156 L38.8836896,11.3502149 C39.2404724,11.1270767 39.6971205,11.2616072 39.901385,11.6500671 C40.1055286,12.038461 39.98245,12.5393159 39.6270576,12.7624541 L37.1163394,14.3467548 Z" id="Path"></path>
            <path d="M11.2228038,26.9404666 C11.4015107,27.3674541 11.2018075,27.8611647 10.7761045,28.0404108 C10.3504015,28.2196569 9.85817601,28.0192829 9.67946909,27.5923637 C9.39387776,26.9142272 9.17141142,26.1990829 9.02423302,25.4611068 C8.8788213,24.7319227 8.8,23.9869267 8.8,23.2383867 C8.8,22.7727557 9.17841021,22.3949758 9.64087383,22.3949758 C10.1051041,22.3949758 10.4817477,22.7745277 10.4817477,23.2383867 C10.4817477,23.8973036 10.5465714,24.5316168 10.6674534,25.1325343 C10.7918687,25.7579193 10.9810399,26.3658567 11.2228038,26.9404666 L11.2228038,26.9404666 Z M11.2228038,19.5342622 C11.0441648,19.9612496 10.5518714,20.1615554 10.1261684,19.9823093 C9.70046545,19.8030632 9.50076217,19.3092844 9.67946909,18.8823651 C9.9614591,18.2128843 10.3065741,17.5785711 10.7007486,16.9899214 L10.7025153,16.9881494 L10.7007486,16.9864455 C11.1054552,16.385528 11.5643855,15.8267299 12.0671431,15.3224553 C12.5646686,14.8234287 13.1217857,14.3630456 13.7278264,13.9537101 L13.7278264,13.9519381 C14.3094733,13.5583464 14.9453438,13.2121901 15.6180428,12.9275772 C16.2925086,12.6411242 17.003735,12.4179866 17.7412577,12.2703641 C18.4682484,12.1227417 19.2145366,12.0454545 19.9590582,12.0454545 C20.4234244,12.0454545 20.8,12.4232345 20.8,12.8888655 C20.8,13.3544965 20.4233565,13.7322764 19.9590582,13.7322764 C19.3003567,13.7322764 18.6662529,13.7972957 18.0688418,13.9167704 C17.4434355,14.0415612 16.8390256,14.2330751 16.2679788,14.4755004 C15.7126963,14.7109739 15.1765756,15.0043787 14.6668192,15.348763 L14.6668192,15.348763 L14.6650525,15.348763 C14.1692937,15.6825833 13.6962979,16.0761751 13.258364,16.5154985 C12.8256622,16.9495058 12.4332544,17.4257007 12.0951382,17.9299753 L12.0933715,17.9282033 C11.7518578,18.43609 11.4592677,18.9737602 11.2228038,19.5342622 Z" id="Shape"></path>
        </g>
    </g>
</svg>