<?xml version="1.0" encoding="UTF-8"?>
<svg width="366px" height="263px" viewBox="0 0 366 263" version="1.1" xmlns="http://www.w3.org/2000/svg" xmlns:xlink="http://www.w3.org/1999/xlink">
    <!-- Generator: Sketch 55.1 (78136) - https://sketchapp.com -->
    <title>Group 15</title>
    <desc>Created with Sketch.</desc>
    <defs>
        <linearGradient x1="109.582053%" y1="84.9012806%" x2="51.5198087%" y2="48.6241343%" id="linearGradient-1">
            <stop stop-color="#000000" offset="0%"></stop>
            <stop stop-color="#000000" stop-opacity="0" offset="100%"></stop>
        </linearGradient>
        <rect id="path-2" x="0" y="0" width="366" height="263"></rect>
    </defs>
    <g id="homepage-2" stroke="none" stroke-width="1" fill="none" fill-rule="evenodd">
        <g id="technology-stacks" transform="translate(-296.000000, -2193.000000)">
            <g id="Group-15" transform="translate(296.000000, 2193.000000)">
                <g id="Mask-Copy-3">
                    <use fill="#FF6B16" xlink:href="#path-2"></use>
                    <use fill-opacity="0.2" fill="url(#linearGradient-1)" style="mix-blend-mode: multiply;" xlink:href="#path-2"></use>
                </g>
                <g id="Shape-2" transform="translate(90.000000, 70.000000)" fill="#FFFFFF" fill-rule="nonzero" stroke="#FFFFFF" stroke-width="5">
                    <path d="M158.0256,50.2014 C156.3857,22.3014 133.3868,0 105.6635,0 C88.8305,0 72.5307,8.2553 62.4309,21.7248 C62.1984,21.6039 61.9535,21.5202 61.7179,21.4086 C61.1041,21.111 60.481,20.8289 59.8455,20.5747 C59.4921,20.4352 59.1387,20.3081 58.7822,20.1841 C58.1529,19.964 57.5143,19.7687 56.8633,19.592 C56.5068,19.4959 56.1534,19.3967 55.7938,19.3161 C55.0963,19.158 54.3833,19.0371 53.6641,18.9286 C53.351,18.8821 53.0441,18.8201 52.7279,18.786 C51.6987,18.6713 50.6571,18.6 49.6,18.6 C34.2147,18.6 21.7,31.1147 21.7,46.5 C21.7,46.8937 21.7248,47.2812 21.7496,47.6687 L21.7496,47.6811 C8.8567,54.7119 0,69.4369 0,84.1774 C0,106.1347 17.8622,124 39.8195,124 L115.7943,124 C116.1167,124 116.436,123.9814 116.7584,123.9566 L116.9506,123.9318 L117.366,123.9566 C117.6822,123.9814 117.9984,124 118.3239,124 L148.7132,124 C169.2724,124 186,107.2724 186,86.7132 C186,69.6973 174.1363,54.436 158.0256,50.2014 L158.0256,50.2014 Z M148.7132,117.8 L118.3239,117.8 C118.141,117.8 117.9643,117.7845 117.7845,117.7721 L116.9444,117.738 L116.3306,117.7721 C116.1539,117.7845 115.9741,117.8 115.7943,117.8 L39.8195,117.8 C21.2815,117.8 6.2,102.7185 6.2,84.1774 C6.2,71.3 14.5855,57.9328 26.1423,52.3931 L27.9,51.553 L27.9,49.6 C27.9,49.2063 27.9248,48.8064 27.9465,48.4034 L27.9744,47.9074 L27.9372,47.2564 C27.9186,47.0053 27.9,46.7542 27.9,46.5 C27.9,34.5371 37.6371,24.8 49.6,24.8 C50.5579,24.8 51.5034,24.8837 52.4427,25.0077 C52.6845,25.0387 52.9263,25.079 53.165,25.1193 C53.9927,25.2557 54.808,25.4355 55.6109,25.668 C55.7194,25.699 55.831,25.7207 55.9395,25.7517 C56.823,26.0214 57.6848,26.3624 58.528,26.7468 C58.7481,26.846 58.962,26.9545 59.179,27.0599 C59.923,27.4288 60.6515,27.8318 61.3552,28.2875 C67.3289,32.1563 71.3,38.8678 71.3,46.5 C71.3,48.2143 72.6857,49.6 74.4,49.6 C76.1143,49.6 77.5,48.2143 77.5,46.5 C77.5,37.9626 73.6374,30.3211 67.58,25.1999 C76.4677,13.5749 91.1028,6.2 105.6635,6.2 C129.673,6.2 149.6122,25.2185 151.6923,49.2528 C148.5241,49.0296 143.7811,48.9149 139.035,49.6372 C137.3424,49.8945 136.1799,51.4755 136.4372,53.1681 C136.6697,54.7026 137.9903,55.8031 139.4969,55.8031 C139.6519,55.8031 139.81,55.7907 139.965,55.7659 C146.8687,54.7212 154.0638,55.7008 154.4854,55.7597 C168.919,58.5032 179.8,71.7991 179.8,86.7132 C179.8,103.8531 165.8531,117.8 148.7132,117.8 L148.7132,117.8 Z" id="Shape"></path>
                </g>
            </g>
        </g>
    </g>
</svg>